Microarray_and_RNAseq_in_R_part2
…
#-----------------------------------------Pathway analysis with msigdbr library 
# fgseaMultilevel from githab devtools::install_github("ctlab/fgsea")
stats <- de[, setNames(stat, ID)]

# GO BP pathways from MSigDB
m_df <- msigdbr(species = "Homo sapiens")
m_df

## # A tibble: 2,448,017 x 9
##    gs_name gs_id gs_cat gs_subcat human_gene_symb species_name entrez_gene
##    <chr>   <chr> <chr>  <chr>     <chr>            <chr>              <int>
##  1 AAACCA M126 C3     MIR       ABCC4            Homo sapiens       10257
##  2 AAACCA M126 C3     MIR       ACTN4            Homo sapiens          81
##  3 AAACCA M126 C3     MIR       ACVR1            Homo sapiens          90
##  4 AAACCA M126 C3     MIR       ADAM9            Homo sapiens        8754
##  5 AAACCA M126 C3     MIR       ADAMTS5          Homo sapiens       11096
##  6 AAACCA M126 C3     MIR       AGER             Homo sapiens         177
##  7 AAACCA M126 C3     MIR       ANK2             Homo sapiens         287
##  8 AAACCA M126 C3     MIR       API5             Homo sapiens        8539
##  9 AAACCA M126 C3     MIR       BACH1            Homo sapiens         571
## 10 AAACCA M126 C3     MIR       BAZ2B            Homo sapiens       29994
## #  with 2,448,007 more rows, and 2 more variables: gene_symbol <chr>,
## #   sources <chr>
…
